<?xml version="1.0" encoding="utf-8"?>
<!-- Generator: Adobe Illustrator 23.0.1, SVG Export Plug-In . SVG Version: 6.00 Build 0)  -->
<svg version="1.1" id="Layer_1" xmlns="http://www.w3.org/2000/svg" xmlns:xlink="http://www.w3.org/1999/xlink" x="0px" y="0px"
	 viewBox="0 0 713.4 683.9" style="enable-background:new 0 0 713.4 683.9;" xml:space="preserve">
<style type="text/css">
	.st0{clip-path:url(#SVGID_2_);fill:#19973F;}
	.st1{clip-path:url(#SVGID_4_);fill:#FFFFFF;}
	.st2{clip-path:url(#SVGID_6_);fill:#FFFFFF;}
	.st3{clip-path:url(#SVGID_8_);fill:#FFFFFF;}
	.st4{clip-path:url(#SVGID_10_);fill:#FFFFFF;}
	.st5{clip-path:url(#SVGID_12_);fill:#FFFFFF;}
	.st6{clip-path:url(#SVGID_14_);fill:#FFFFFF;}
	.st7{clip-path:url(#SVGID_16_);fill:#FFFFFF;}
	.st8{clip-path:url(#SVGID_18_);fill:#FFFFFF;}
	.st9{clip-path:url(#SVGID_20_);fill:#FFFFFF;}
	.st10{clip-path:url(#SVGID_22_);fill:#FFFFFF;}
	.st11{clip-path:url(#SVGID_24_);fill:#FFFFFF;}
	.st12{clip-path:url(#SVGID_26_);fill:#D0DEEA;}
	.st13{clip-path:url(#SVGID_28_);fill:#020202;}
	.st14{clip-path:url(#SVGID_30_);fill:#020202;}
	.st15{clip-path:url(#SVGID_32_);fill:#020202;}
	.st16{clip-path:url(#SVGID_34_);fill:#020202;}
	.st17{clip-path:url(#SVGID_36_);fill:#020202;}
	.st18{clip-path:url(#SVGID_38_);fill:#020202;}
	.st19{clip-path:url(#SVGID_40_);fill:#020202;}
	.st20{clip-path:url(#SVGID_42_);fill:#020202;}
	.st21{clip-path:url(#SVGID_44_);fill:#020202;}
	.st22{clip-path:url(#SVGID_46_);fill:#020202;}
	.st23{clip-path:url(#SVGID_48_);fill:#020202;}
	.st24{clip-path:url(#SVGID_50_);fill:#020202;}
	.st25{clip-path:url(#SVGID_52_);fill:#020202;}
	.st26{clip-path:url(#SVGID_54_);fill:#020202;}
	.st27{clip-path:url(#SVGID_56_);fill:#020202;}
	.st28{clip-path:url(#SVGID_58_);fill:#020202;}
	.st29{clip-path:url(#SVGID_60_);fill:#020202;}
	.st30{clip-path:url(#SVGID_62_);fill:#020202;}
	.st31{clip-path:url(#SVGID_64_);fill:#020202;}
	.st32{clip-path:url(#SVGID_66_);fill:#020202;}
	.st33{clip-path:url(#SVGID_68_);fill:#020202;}
	.st34{clip-path:url(#SVGID_70_);fill:#020202;}
	.st35{clip-path:url(#SVGID_72_);fill:#020202;}
	.st36{clip-path:url(#SVGID_74_);fill:#020202;}
	.st37{clip-path:url(#SVGID_76_);fill:#020202;}
	.st38{clip-path:url(#SVGID_78_);fill:#020202;}
	.st39{clip-path:url(#SVGID_80_);fill:#020202;}
	.st40{clip-path:url(#SVGID_82_);fill:#020202;}
	.st41{clip-path:url(#SVGID_84_);fill:#020202;}
	.st42{clip-path:url(#SVGID_86_);fill:#020202;}
	.st43{clip-path:url(#SVGID_88_);fill:#020202;}
	.st44{clip-path:url(#SVGID_90_);fill:#020202;}
	.st45{clip-path:url(#SVGID_92_);fill:#020202;}
	.st46{clip-path:url(#SVGID_94_);fill:#020202;}
	.st47{clip-path:url(#SVGID_96_);fill:#020202;}
</style>
<g>
	<g>
		<defs>
			<rect id="SVGID_1_" x="0" y="0" width="713.4" height="683.9"/>
		</defs>
		<clipPath id="SVGID_2_">
			<use xlink:href="#SVGID_1_"  style="overflow:visible;"/>
		</clipPath>
		<path class="st0" d="M497.9,249c0,137.5-111.5,249-249,249s-249-111.5-249-249S111.4,0,248.9,0C386.5,0,497.9,111.5,497.9,249"/>
	</g>
	<g>
		<defs>
			<rect id="SVGID_3_" x="0" y="0" width="713.4" height="683.9"/>
		</defs>
		<clipPath id="SVGID_4_">
			<use xlink:href="#SVGID_3_"  style="overflow:visible;"/>
		</clipPath>
		<path class="st1" d="M236.1,85.6c-1.5,1.5-4,1.5-5.5,0s-1.5-4,0-5.5s4-1.5,5.5,0C237.7,81.6,237.7,84.1,236.1,85.6"/>
	</g>
	<g>
		<defs>
			<rect id="SVGID_5_" x="0" y="0" width="713.4" height="683.9"/>
		</defs>
		<clipPath id="SVGID_6_">
			<use xlink:href="#SVGID_5_"  style="overflow:visible;"/>
		</clipPath>
		<path class="st2" d="M218.7,103.1c-1.5,1.5-4,1.5-5.5,0s-1.5-4,0-5.5s4-1.5,5.5,0S220.2,101.5,218.7,103.1"/>
	</g>
	<g>
		<defs>
			<rect id="SVGID_7_" x="0" y="0" width="713.4" height="683.9"/>
		</defs>
		<clipPath id="SVGID_8_">
			<use xlink:href="#SVGID_7_"  style="overflow:visible;"/>
		</clipPath>
		<path class="st3" d="M215.7,85.6c-1.5,1.5-4,1.5-5.5,0s-1.5-4,0-5.5s4-1.5,5.5,0S217.2,84.1,215.7,85.6"/>
	</g>
	<g>
		<defs>
			<rect id="SVGID_9_" x="0" y="0" width="713.4" height="683.9"/>
		</defs>
		<clipPath id="SVGID_10_">
			<use xlink:href="#SVGID_9_"  style="overflow:visible;"/>
		</clipPath>
		<path class="st4" d="M198.2,103.1c-1.5,1.5-4,1.5-5.5,0s-1.5-4,0-5.5s4-1.5,5.5,0C199.8,99.1,199.8,101.5,198.2,103.1"/>
	</g>
	<g>
		<defs>
			<rect id="SVGID_11_" x="0" y="0" width="713.4" height="683.9"/>
		</defs>
		<clipPath id="SVGID_12_">
			<use xlink:href="#SVGID_11_"  style="overflow:visible;"/>
		</clipPath>
		<path class="st5" d="M195.2,85.6c-1.5,1.5-4,1.5-5.5,0s-1.5-4,0-5.5s4-1.5,5.5,0C196.8,81.6,196.8,84.1,195.2,85.6"/>
	</g>
	<g>
		<defs>
			<rect id="SVGID_13_" x="0" y="0" width="713.4" height="683.9"/>
		</defs>
		<clipPath id="SVGID_14_">
			<use xlink:href="#SVGID_13_"  style="overflow:visible;"/>
		</clipPath>
		<path class="st6" d="M177.8,103.1c-1.5,1.5-4,1.5-5.5,0s-1.5-4,0-5.5s4-1.5,5.5,0S179.3,101.5,177.8,103.1"/>
	</g>
	<g>
		<defs>
			<rect id="SVGID_15_" x="0" y="0" width="713.4" height="683.9"/>
		</defs>
		<clipPath id="SVGID_16_">
			<use xlink:href="#SVGID_15_"  style="overflow:visible;"/>
		</clipPath>
		<path class="st7" d="M174.8,85.6c-1.5,1.5-4,1.5-5.5,0s-1.5-4,0-5.5s4-1.5,5.5,0S176.3,84.1,174.8,85.6"/>
	</g>
	<g>
		<defs>
			<rect id="SVGID_17_" x="0" y="0" width="713.4" height="683.9"/>
		</defs>
		<clipPath id="SVGID_18_">
			<use xlink:href="#SVGID_17_"  style="overflow:visible;"/>
		</clipPath>
		<path class="st8" d="M157.3,103.1c-1.5,1.5-4,1.5-5.5,0s-1.5-4,0-5.5s4-1.5,5.5,0C158.9,99.1,158.9,101.5,157.3,103.1"/>
	</g>
	<g>
		<defs>
			<rect id="SVGID_19_" x="0" y="0" width="713.4" height="683.9"/>
		</defs>
		<clipPath id="SVGID_20_">
			<use xlink:href="#SVGID_19_"  style="overflow:visible;"/>
		</clipPath>
		<path class="st9" d="M154.4,85.6c-1.5,1.5-4,1.5-5.5,0s-1.5-4,0-5.5s4-1.5,5.5,0S155.9,84.1,154.4,85.6"/>
	</g>
	<g>
		<defs>
			<rect id="SVGID_21_" x="0" y="0" width="713.4" height="683.9"/>
		</defs>
		<clipPath id="SVGID_22_">
			<use xlink:href="#SVGID_21_"  style="overflow:visible;"/>
		</clipPath>
		<path class="st10" d="M136.9,103.1c-1.5,1.5-4,1.5-5.5,0s-1.5-4,0-5.5s4-1.5,5.5,0S138.4,101.5,136.9,103.1"/>
	</g>
	<g>
		<defs>
			<rect id="SVGID_23_" x="0" y="0" width="713.4" height="683.9"/>
		</defs>
		<clipPath id="SVGID_24_">
			<use xlink:href="#SVGID_23_"  style="overflow:visible;"/>
		</clipPath>
		<path class="st11" d="M454,150.2c2.3,0.1,4.1,2,4,4.3s-2,4.1-4.3,4s-4.1-2-4.1-4.3c0.1-2.3,1.9-4,4.2-4H454z M428,154.9
			c0.2,2.3-1.5,4.3-3.8,4.5s-4.3-1.5-4.5-3.8s1.5-4.3,3.8-4.5c0.1,0,0.3,0,0.4,0C426,151.1,427.8,152.7,428,154.9 M398.3,158.6
			c0.4,2.2-1,4.4-3.3,4.9l0,0c-2.2,0.5-4.4-1-4.9-3.2s1-4.4,3.3-4.9l0,0c0.3,0,0.5-0.1,0.8-0.1C396.1,155.3,397.9,156.7,398.3,158.6
			 M369.1,165.8c0.7,2.2-0.5,4.5-2.7,5.2s-4.5-0.5-5.2-2.7s0.5-4.5,2.7-5.2c0.4-0.1,0.8-0.2,1.3-0.2
			C366.9,162.9,368.6,164,369.1,165.8 M341,176.2c0.9,2.1,0,4.6-2,5.5c-2.1,0.9-4.6,0-5.5-2.1s0-4.5,2-5.5c0.6-0.3,1.1-0.4,1.7-0.4
			C338.8,173.8,340.3,174.7,341,176.2 M314.3,189.9c1.2,2,0.5,4.5-1.4,5.7c-2,1.2-4.5,0.5-5.7-1.4c-1.2-2-0.6-4.5,1.4-5.7
			c0.7-0.4,1.4-0.6,2.2-0.6C312.1,187.8,313.5,188.6,314.3,189.9 M289.3,206.4c1.4,1.8,1.1,4.4-0.7,5.8c-1.8,1.4-4.4,1.1-5.8-0.7
			c-1.4-1.8-1.1-4.4,0.8-5.8c0.7-0.6,1.6-0.9,2.5-0.9C287.3,204.8,288.5,205.3,289.3,206.4 M266.3,225.7c1.6,1.6,1.6,4.3-0.1,5.9
			c-1.6,1.6-4.3,1.6-5.9-0.1c-1.6-1.6-1.5-4.3,0.1-5.9c0.8-0.8,1.8-1.2,2.9-1.2C264.4,224.4,265.5,224.9,266.3,225.7 M245.7,247.5
			c1.8,1.4,2,4.1,0.6,5.8c-1.5,1.8-4.1,2-5.9,0.6s-2-4.1-0.6-5.8c0.8-1,2-1.5,3.2-1.5C244,246.5,244.9,246.9,245.7,247.5
			 M227.7,271.5c1.9,1.2,2.5,3.8,1.2,5.7c-1.2,1.9-3.8,2.5-5.8,1.2c-1.9-1.2-2.5-3.8-1.2-5.7c0.8-1.2,2.1-1.9,3.5-1.9
			C226.2,270.8,227,271,227.7,271.5 M212.5,297.3c2.1,1,2.9,3.5,1.9,5.6s-3.5,2.9-5.6,1.9c-2-1-2.9-3.5-1.9-5.6
			c0.7-1.5,2.2-2.3,3.7-2.3C211.3,296.9,211.9,297,212.5,297.3 M200.3,324.8c2.2,0.8,3.3,3.1,2.5,5.3c-0.8,2.2-3.1,3.3-5.3,2.5
			s-3.3-3.2-2.5-5.3c0.6-1.7,2.2-2.8,3.9-2.8C199.4,324.5,199.9,324.6,200.3,324.8 M191.5,353.4c2.2,0.5,3.6,2.8,3.1,5
			s-2.8,3.6-5,3.1s-3.6-2.7-3.1-5c0.4-1.9,2.1-3.2,4-3.2C190.8,353.3,191.1,353.4,191.5,353.4 M185.9,382.9c2.3,0.2,3.9,2.3,3.7,4.6
			c-0.3,2.3-2.3,3.9-4.6,3.7c-2.3-0.3-3.9-2.3-3.7-4.6l0,0c0.2-2.1,2-3.7,4.1-3.7C185.6,382.9,185.7,382.9,185.9,382.9 M187.9,417
			v0.2c0,0.1,0,0.2,0,0.3c0,2.3-1.9,4.2-4.2,4.2s-4.2-1.8-4.2-4.1c0-0.1,0-0.2,0-0.3V417c0-2.3,1.9-4.2,4.2-4.2
			C186.1,412.8,187.9,414.7,187.9,417 M189.6,447L189.6,447c0.3,2.3-1.4,4.3-3.7,4.6c-2.3,0.3-4.3-1.4-4.6-3.7
			c-0.3-2.3,1.4-4.3,3.7-4.6c0.2,0,0.3,0,0.5,0C187.6,443.3,189.4,444.9,189.6,447 M194.7,476.1L194.7,476.1c0.5,2.2-0.9,4.5-3.1,5
			c-2.2,0.5-4.5-0.9-5-3.1c-0.5-2.2,0.9-4.5,3.1-5c0.3-0.1,0.6-0.1,0.9-0.1C192.5,472.9,194.2,474.2,194.7,476.1"/>
	</g>
	<g>
		<defs>
			<rect id="SVGID_25_" x="0" y="0" width="713.4" height="683.9"/>
		</defs>
		<clipPath id="SVGID_26_">
			<use xlink:href="#SVGID_25_"  style="overflow:visible;"/>
		</clipPath>
		<path class="st12" d="M446.5,683.9c147.2,0,266.9-119.7,266.9-266.9c0-136.8-103.4-249.8-236.1-265.1c1.3,2.9,2.6,5.9,3.8,8.9
			c126.3,16.9,224,125.4,224,256.2c0,142.6-116,258.6-258.6,258.6c-116.4,0-215.1-77.3-247.4-183.2c-3.1-0.7-6.3-1.5-9.4-2.3
			C221.6,601.8,324.6,683.9,446.5,683.9"/>
	</g>
	<g>
		<defs>
			<rect id="SVGID_27_" x="0" y="0" width="713.4" height="683.9"/>
		</defs>
		<clipPath id="SVGID_28_">
			<use xlink:href="#SVGID_27_"  style="overflow:visible;"/>
		</clipPath>
		<path class="st13" d="M278.3,583.8c0,1.4,1.2,2.6,2.6,2.6s2.6-1.2,2.6-2.6c0-1.4-1.2-2.6-2.6-2.6
			C279.4,581.2,278.3,582.3,278.3,583.8"/>
	</g>
	<g>
		<defs>
			<rect id="SVGID_29_" x="0" y="0" width="713.4" height="683.9"/>
		</defs>
		<clipPath id="SVGID_30_">
			<use xlink:href="#SVGID_29_"  style="overflow:visible;"/>
		</clipPath>
		<path class="st14" d="M278.3,560.2c0,1.4,1.2,2.6,2.6,2.6s2.6-1.2,2.6-2.6c0-1.4-1.2-2.6-2.6-2.6
			C279.4,557.7,278.3,558.8,278.3,560.2"/>
	</g>
	<g>
		<defs>
			<rect id="SVGID_31_" x="0" y="0" width="713.4" height="683.9"/>
		</defs>
		<clipPath id="SVGID_32_">
			<use xlink:href="#SVGID_31_"  style="overflow:visible;"/>
		</clipPath>
		<path class="st15" d="M278.3,536.7c0,1.4,1.2,2.6,2.6,2.6s2.6-1.2,2.6-2.6c0-1.4-1.2-2.6-2.6-2.6
			C279.4,534.1,278.3,535.3,278.3,536.7"/>
	</g>
	<g>
		<defs>
			<rect id="SVGID_33_" x="0" y="0" width="713.4" height="683.9"/>
		</defs>
		<clipPath id="SVGID_34_">
			<use xlink:href="#SVGID_33_"  style="overflow:visible;"/>
		</clipPath>
		<path class="st16" d="M278.3,513.2c0,1.4,1.2,2.6,2.6,2.6s2.6-1.2,2.6-2.6c0-1.4-1.2-2.6-2.6-2.6
			C279.4,510.6,278.3,511.8,278.3,513.2"/>
	</g>
	<g>
		<defs>
			<rect id="SVGID_35_" x="0" y="0" width="713.4" height="683.9"/>
		</defs>
		<clipPath id="SVGID_36_">
			<use xlink:href="#SVGID_35_"  style="overflow:visible;"/>
		</clipPath>
		<path class="st17" d="M278.3,489.7c0,1.4,1.2,2.6,2.6,2.6s2.6-1.2,2.6-2.6c0-1.4-1.2-2.6-2.6-2.6
			C279.4,487.1,278.3,488.3,278.3,489.7"/>
	</g>
	<g>
		<defs>
			<rect id="SVGID_37_" x="0" y="0" width="713.4" height="683.9"/>
		</defs>
		<clipPath id="SVGID_38_">
			<use xlink:href="#SVGID_37_"  style="overflow:visible;"/>
		</clipPath>
		<path class="st18" d="M278.3,466.2c0,1.4,1.2,2.6,2.6,2.6s2.6-1.2,2.6-2.6c0-1.4-1.2-2.6-2.6-2.6
			C279.4,463.6,278.3,464.8,278.3,466.2"/>
	</g>
	<g>
		<defs>
			<rect id="SVGID_39_" x="0" y="0" width="713.4" height="683.9"/>
		</defs>
		<clipPath id="SVGID_40_">
			<use xlink:href="#SVGID_39_"  style="overflow:visible;"/>
		</clipPath>
		<path class="st19" d="M283.5,442.7c0-1.4-1.2-2.6-2.6-2.6s-2.6,1.2-2.6,2.6s1.2,2.6,2.6,2.6S283.5,444.1,283.5,442.7"/>
	</g>
	<g>
		<defs>
			<rect id="SVGID_41_" x="0" y="0" width="713.4" height="683.9"/>
		</defs>
		<clipPath id="SVGID_42_">
			<use xlink:href="#SVGID_41_"  style="overflow:visible;"/>
		</clipPath>
		<path class="st20" d="M299.3,583.8c0,1.4,1.2,2.6,2.6,2.6s2.6-1.2,2.6-2.6c0-1.4-1.2-2.6-2.6-2.6S299.3,582.3,299.3,583.8"/>
	</g>
	<g>
		<defs>
			<rect id="SVGID_43_" x="0" y="0" width="713.4" height="683.9"/>
		</defs>
		<clipPath id="SVGID_44_">
			<use xlink:href="#SVGID_43_"  style="overflow:visible;"/>
		</clipPath>
		<path class="st21" d="M299.3,560.2c0,1.4,1.2,2.6,2.6,2.6s2.6-1.2,2.6-2.6c0-1.4-1.2-2.6-2.6-2.6
			C300.5,557.7,299.3,558.8,299.3,560.2"/>
	</g>
	<g>
		<defs>
			<rect id="SVGID_45_" x="0" y="0" width="713.4" height="683.9"/>
		</defs>
		<clipPath id="SVGID_46_">
			<use xlink:href="#SVGID_45_"  style="overflow:visible;"/>
		</clipPath>
		<path class="st22" d="M299.3,536.7c0,1.4,1.2,2.6,2.6,2.6s2.6-1.2,2.6-2.6c0-1.4-1.2-2.6-2.6-2.6S299.3,535.3,299.3,536.7"/>
	</g>
	<g>
		<defs>
			<rect id="SVGID_47_" x="0" y="0" width="713.4" height="683.9"/>
		</defs>
		<clipPath id="SVGID_48_">
			<use xlink:href="#SVGID_47_"  style="overflow:visible;"/>
		</clipPath>
		<path class="st23" d="M299.3,513.2c0,1.4,1.2,2.6,2.6,2.6s2.6-1.2,2.6-2.6c0-1.4-1.2-2.6-2.6-2.6S299.3,511.8,299.3,513.2"/>
	</g>
	<g>
		<defs>
			<rect id="SVGID_49_" x="0" y="0" width="713.4" height="683.9"/>
		</defs>
		<clipPath id="SVGID_50_">
			<use xlink:href="#SVGID_49_"  style="overflow:visible;"/>
		</clipPath>
		<path class="st24" d="M299.3,489.7c0,1.4,1.2,2.6,2.6,2.6s2.6-1.2,2.6-2.6c0-1.4-1.2-2.6-2.6-2.6S299.3,488.3,299.3,489.7"/>
	</g>
	<g>
		<defs>
			<rect id="SVGID_51_" x="0" y="0" width="713.4" height="683.9"/>
		</defs>
		<clipPath id="SVGID_52_">
			<use xlink:href="#SVGID_51_"  style="overflow:visible;"/>
		</clipPath>
		<path class="st25" d="M299.3,466.2c0,1.4,1.2,2.6,2.6,2.6s2.6-1.2,2.6-2.6c0-1.4-1.2-2.6-2.6-2.6S299.3,464.8,299.3,466.2"/>
	</g>
	<g>
		<defs>
			<rect id="SVGID_53_" x="0" y="0" width="713.4" height="683.9"/>
		</defs>
		<clipPath id="SVGID_54_">
			<use xlink:href="#SVGID_53_"  style="overflow:visible;"/>
		</clipPath>
		<path class="st26" d="M299.3,442.7c0,1.4,1.2,2.6,2.6,2.6s2.6-1.2,2.6-2.6c0-1.4-1.2-2.6-2.6-2.6S299.3,441.3,299.3,442.7"/>
	</g>
	<g>
		<defs>
			<rect id="SVGID_55_" x="0" y="0" width="713.4" height="683.9"/>
		</defs>
		<clipPath id="SVGID_56_">
			<use xlink:href="#SVGID_55_"  style="overflow:visible;"/>
		</clipPath>
		<path class="st27" d="M320.3,583.8c0,1.4,1.2,2.6,2.6,2.6s2.6-1.2,2.6-2.6c0-1.4-1.2-2.6-2.6-2.6S320.3,582.3,320.3,583.8"/>
	</g>
	<g>
		<defs>
			<rect id="SVGID_57_" x="0" y="0" width="713.4" height="683.9"/>
		</defs>
		<clipPath id="SVGID_58_">
			<use xlink:href="#SVGID_57_"  style="overflow:visible;"/>
		</clipPath>
		<path class="st28" d="M320.3,560.2c0,1.4,1.2,2.6,2.6,2.6s2.6-1.2,2.6-2.6c0-1.4-1.2-2.6-2.6-2.6
			C321.5,557.7,320.3,558.8,320.3,560.2"/>
	</g>
	<g>
		<defs>
			<rect id="SVGID_59_" x="0" y="0" width="713.4" height="683.9"/>
		</defs>
		<clipPath id="SVGID_60_">
			<use xlink:href="#SVGID_59_"  style="overflow:visible;"/>
		</clipPath>
		<path class="st29" d="M320.3,536.7c0,1.4,1.2,2.6,2.6,2.6s2.6-1.2,2.6-2.6c0-1.4-1.2-2.6-2.6-2.6S320.3,535.3,320.3,536.7"/>
	</g>
	<g>
		<defs>
			<rect id="SVGID_61_" x="0" y="0" width="713.4" height="683.9"/>
		</defs>
		<clipPath id="SVGID_62_">
			<use xlink:href="#SVGID_61_"  style="overflow:visible;"/>
		</clipPath>
		<path class="st30" d="M320.3,513.2c0,1.4,1.2,2.6,2.6,2.6s2.6-1.2,2.6-2.6c0-1.4-1.2-2.6-2.6-2.6S320.3,511.8,320.3,513.2"/>
	</g>
	<g>
		<defs>
			<rect id="SVGID_63_" x="0" y="0" width="713.4" height="683.9"/>
		</defs>
		<clipPath id="SVGID_64_">
			<use xlink:href="#SVGID_63_"  style="overflow:visible;"/>
		</clipPath>
		<path class="st31" d="M320.3,489.7c0,1.4,1.2,2.6,2.6,2.6s2.6-1.2,2.6-2.6c0-1.4-1.2-2.6-2.6-2.6S320.3,488.3,320.3,489.7"/>
	</g>
	<g>
		<defs>
			<rect id="SVGID_65_" x="0" y="0" width="713.4" height="683.9"/>
		</defs>
		<clipPath id="SVGID_66_">
			<use xlink:href="#SVGID_65_"  style="overflow:visible;"/>
		</clipPath>
		<path class="st32" d="M320.3,466.2c0,1.4,1.2,2.6,2.6,2.6s2.6-1.2,2.6-2.6c0-1.4-1.2-2.6-2.6-2.6S320.3,464.8,320.3,466.2"/>
	</g>
	<g>
		<defs>
			<rect id="SVGID_67_" x="0" y="0" width="713.4" height="683.9"/>
		</defs>
		<clipPath id="SVGID_68_">
			<use xlink:href="#SVGID_67_"  style="overflow:visible;"/>
		</clipPath>
		<path class="st33" d="M320.3,442.7c0,1.4,1.2,2.6,2.6,2.6s2.6-1.2,2.6-2.6c0-1.4-1.2-2.6-2.6-2.6S320.3,441.3,320.3,442.7"/>
	</g>
	<g>
		<defs>
			<rect id="SVGID_69_" x="0" y="0" width="713.4" height="683.9"/>
		</defs>
		<clipPath id="SVGID_70_">
			<use xlink:href="#SVGID_69_"  style="overflow:visible;"/>
		</clipPath>
		<path class="st34" d="M341.3,583.8c0,1.4,1.2,2.6,2.6,2.6s2.6-1.2,2.6-2.6c0-1.4-1.2-2.6-2.6-2.6S341.3,582.3,341.3,583.8"/>
	</g>
	<g>
		<defs>
			<rect id="SVGID_71_" x="0" y="0" width="713.4" height="683.9"/>
		</defs>
		<clipPath id="SVGID_72_">
			<use xlink:href="#SVGID_71_"  style="overflow:visible;"/>
		</clipPath>
		<path class="st35" d="M341.3,560.2c0,1.4,1.2,2.6,2.6,2.6s2.6-1.2,2.6-2.6c0-1.4-1.2-2.6-2.6-2.6
			C342.5,557.7,341.3,558.8,341.3,560.2"/>
	</g>
	<g>
		<defs>
			<rect id="SVGID_73_" x="0" y="0" width="713.4" height="683.9"/>
		</defs>
		<clipPath id="SVGID_74_">
			<use xlink:href="#SVGID_73_"  style="overflow:visible;"/>
		</clipPath>
		<path class="st36" d="M341.3,536.7c0,1.4,1.2,2.6,2.6,2.6s2.6-1.2,2.6-2.6c0-1.4-1.2-2.6-2.6-2.6S341.3,535.3,341.3,536.7"/>
	</g>
	<g>
		<defs>
			<rect id="SVGID_75_" x="0" y="0" width="713.4" height="683.9"/>
		</defs>
		<clipPath id="SVGID_76_">
			<use xlink:href="#SVGID_75_"  style="overflow:visible;"/>
		</clipPath>
		<path class="st37" d="M341.3,513.2c0,1.4,1.2,2.6,2.6,2.6s2.6-1.2,2.6-2.6c0-1.4-1.2-2.6-2.6-2.6S341.3,511.8,341.3,513.2"/>
	</g>
	<g>
		<defs>
			<rect id="SVGID_77_" x="0" y="0" width="713.4" height="683.9"/>
		</defs>
		<clipPath id="SVGID_78_">
			<use xlink:href="#SVGID_77_"  style="overflow:visible;"/>
		</clipPath>
		<path class="st38" d="M341.3,489.7c0,1.4,1.2,2.6,2.6,2.6s2.6-1.2,2.6-2.6c0-1.4-1.2-2.6-2.6-2.6S341.3,488.3,341.3,489.7"/>
	</g>
	<g>
		<defs>
			<rect id="SVGID_79_" x="0" y="0" width="713.4" height="683.9"/>
		</defs>
		<clipPath id="SVGID_80_">
			<use xlink:href="#SVGID_79_"  style="overflow:visible;"/>
		</clipPath>
		<path class="st39" d="M341.3,466.2c0,1.4,1.2,2.6,2.6,2.6s2.6-1.2,2.6-2.6c0-1.4-1.2-2.6-2.6-2.6S341.3,464.8,341.3,466.2"/>
	</g>
	<g>
		<defs>
			<rect id="SVGID_81_" x="0" y="0" width="713.4" height="683.9"/>
		</defs>
		<clipPath id="SVGID_82_">
			<use xlink:href="#SVGID_81_"  style="overflow:visible;"/>
		</clipPath>
		<path class="st40" d="M341.3,442.7c0,1.4,1.2,2.6,2.6,2.6s2.6-1.2,2.6-2.6c0-1.4-1.2-2.6-2.6-2.6S341.3,441.3,341.3,442.7"/>
	</g>
	<g>
		<defs>
			<rect id="SVGID_83_" x="0" y="0" width="713.4" height="683.9"/>
		</defs>
		<clipPath id="SVGID_84_">
			<use xlink:href="#SVGID_83_"  style="overflow:visible;"/>
		</clipPath>
		<path class="st41" d="M362.4,583.8c0,1.4,1.2,2.6,2.6,2.6s2.6-1.2,2.6-2.6c0-1.4-1.2-2.6-2.6-2.6
			C363.5,581.2,362.4,582.3,362.4,583.8"/>
	</g>
	<g>
		<defs>
			<rect id="SVGID_85_" x="0" y="0" width="713.4" height="683.9"/>
		</defs>
		<clipPath id="SVGID_86_">
			<use xlink:href="#SVGID_85_"  style="overflow:visible;"/>
		</clipPath>
		<path class="st42" d="M362.4,560.2c0,1.4,1.2,2.6,2.6,2.6s2.6-1.2,2.6-2.6c0-1.4-1.2-2.6-2.6-2.6
			C363.5,557.7,362.4,558.8,362.4,560.2"/>
	</g>
	<g>
		<defs>
			<rect id="SVGID_87_" x="0" y="0" width="713.4" height="683.9"/>
		</defs>
		<clipPath id="SVGID_88_">
			<use xlink:href="#SVGID_87_"  style="overflow:visible;"/>
		</clipPath>
		<path class="st43" d="M362.4,536.7c0,1.4,1.2,2.6,2.6,2.6s2.6-1.2,2.6-2.6c0-1.4-1.2-2.6-2.6-2.6
			C363.5,534.1,362.4,535.3,362.4,536.7"/>
	</g>
	<g>
		<defs>
			<rect id="SVGID_89_" x="0" y="0" width="713.4" height="683.9"/>
		</defs>
		<clipPath id="SVGID_90_">
			<use xlink:href="#SVGID_89_"  style="overflow:visible;"/>
		</clipPath>
		<path class="st44" d="M362.4,513.2c0,1.4,1.2,2.6,2.6,2.6s2.6-1.2,2.6-2.6c0-1.4-1.2-2.6-2.6-2.6
			C363.5,510.6,362.4,511.8,362.4,513.2"/>
	</g>
	<g>
		<defs>
			<rect id="SVGID_91_" x="0" y="0" width="713.4" height="683.9"/>
		</defs>
		<clipPath id="SVGID_92_">
			<use xlink:href="#SVGID_91_"  style="overflow:visible;"/>
		</clipPath>
		<path class="st45" d="M362.4,489.7c0,1.4,1.2,2.6,2.6,2.6s2.6-1.2,2.6-2.6c0-1.4-1.2-2.6-2.6-2.6
			C363.5,487.1,362.4,488.3,362.4,489.7"/>
	</g>
	<g>
		<defs>
			<rect id="SVGID_93_" x="0" y="0" width="713.4" height="683.9"/>
		</defs>
		<clipPath id="SVGID_94_">
			<use xlink:href="#SVGID_93_"  style="overflow:visible;"/>
		</clipPath>
		<path class="st46" d="M362.4,466.2c0,1.4,1.2,2.6,2.6,2.6s2.6-1.2,2.6-2.6c0-1.4-1.2-2.6-2.6-2.6
			C363.5,463.6,362.4,464.8,362.4,466.2"/>
	</g>
	<g>
		<defs>
			<rect id="SVGID_95_" x="0" y="0" width="713.4" height="683.9"/>
		</defs>
		<clipPath id="SVGID_96_">
			<use xlink:href="#SVGID_95_"  style="overflow:visible;"/>
		</clipPath>
		<path class="st47" d="M362.4,442.7c0,1.4,1.2,2.6,2.6,2.6s2.6-1.2,2.6-2.6c0-1.4-1.2-2.6-2.6-2.6
			C363.5,440.1,362.4,441.3,362.4,442.7"/>
	</g>
</g>
</svg>
